xpm_cdc.sv,systemverilog,xil_defaultlib,../../../../../Xilinx/Vivado/2016.4/data/ip/xpm/xpm_cdc/hdl/xpm_cdc.sv,incdir="../../../ipstatic"incdir="../../../ipstatic"
xpm_memory.sv,systemverilog,xil_defaultlib,../../../../../Xilinx/Vivado/2016.4/data/ip/xpm/xpm_memory/hdl/xpm_memory.sv,incdir="../../../ipstatic"incdir="../../../ipstatic"
xpm_VCOMP.vhd,vhdl,xpm,../../../../../Xilinx/Vivado/2016.4/data/ip/xpm/xpm_VCOMP.vhd,incdir="../../../ipstatic"incdir="../../../ipstatic"
clk_125_125_clk_wiz.v,verilog,xil_defaultlib,../../../../../rgmii_mac/rgmii_mac.srcs/sources_1/ip/clk_125_125/clk_125_125_clk_wiz.v,incdir="../../../ipstatic"incdir="../../../ipstatic"
clk_125_125.v,verilog,xil_defaultlib,../../../../../rgmii_mac/rgmii_mac.srcs/sources_1/ip/clk_125_125/clk_125_125.v,incdir="../../../ipstatic"incdir="../../../ipstatic"
glbl.v,Verilog,xil_defaultlib,glbl.v
