xpm_cdc.sv,systemverilog,xil_defaultlib,../../../../../Xilinx/Vivado/2016.4/data/ip/xpm/xpm_cdc/hdl/xpm_cdc.sv,incdir="../../../ipstatic"incdir="../../../ipstatic"
xpm_VCOMP.vhd,vhdl,xpm,../../../../../Xilinx/Vivado/2016.4/data/ip/xpm/xpm_VCOMP.vhd,incdir="../../../ipstatic"incdir="../../../ipstatic"
clk_200_clk_wiz.v,verilog,xil_defaultlib,../../../../ddr3_and_hdmi.srcs/sources_1/ip/clk_200/clk_200_clk_wiz.v,incdir="../../../ipstatic"incdir="../../../ipstatic"
clk_200.v,verilog,xil_defaultlib,../../../../ddr3_and_hdmi.srcs/sources_1/ip/clk_200/clk_200.v,incdir="../../../ipstatic"incdir="../../../ipstatic"
glbl.v,Verilog,xil_defaultlib,glbl.v
