xpm_cdc.sv,systemverilog,xil_defaultlib,../../../../Xilinx/Vivado/2016.4/data/ip/xpm/xpm_cdc/hdl/xpm_cdc.sv,incdir="../../../ipstatic"incdir="../../../ipstatic"
xpm_memory.sv,systemverilog,xil_defaultlib,../../../../Xilinx/Vivado/2016.4/data/ip/xpm/xpm_memory/hdl/xpm_memory.sv,incdir="../../../ipstatic"incdir="../../../ipstatic"
xpm_VCOMP.vhd,vhdl,xpm,../../../../Xilinx/Vivado/2016.4/data/ip/xpm/xpm_VCOMP.vhd,incdir="../../../ipstatic"incdir="../../../ipstatic"
clk_65_235_clk_wiz.v,verilog,xil_defaultlib,../../../../ddr3_and_hdmi.srcs/sources_1/ip/clk_65_235/clk_65_235_clk_wiz.v,incdir="../../../ipstatic"incdir="../../../ipstatic"
clk_65_235.v,verilog,xil_defaultlib,../../../../ddr3_and_hdmi.srcs/sources_1/ip/clk_65_235/clk_65_235.v,incdir="../../../ipstatic"incdir="../../../ipstatic"
glbl.v,Verilog,xil_defaultlib,glbl.v
