xpm_cdc.sv,systemverilog,xil_defaultlib,../../../../../../../../../Xilinx/Vivado/2016.4/data/ip/xpm/xpm_cdc/hdl/xpm_cdc.sv,incdir="../../../../../rgmii_mac2/rgmii_mac2/rgmii_mac2.srcs/sources_1/ip/ila_10/hdl/verilog"
xpm_memory.sv,systemverilog,xil_defaultlib,../../../../../../../../../Xilinx/Vivado/2016.4/data/ip/xpm/xpm_memory/hdl/xpm_memory.sv,incdir="../../../../../rgmii_mac2/rgmii_mac2/rgmii_mac2.srcs/sources_1/ip/ila_10/hdl/verilog"
xpm_VCOMP.vhd,vhdl,xpm,../../../../../../../../../Xilinx/Vivado/2016.4/data/ip/xpm/xpm_VCOMP.vhd,incdir="../../../../../rgmii_mac2/rgmii_mac2/rgmii_mac2.srcs/sources_1/ip/ila_10/hdl/verilog"
ila_10.v,verilog,xil_defaultlib,../../../../../rgmii_mac2/rgmii_mac2/rgmii_mac2.srcs/sources_1/ip/ila_10/sim/ila_10.v,incdir="../../../../../rgmii_mac2/rgmii_mac2/rgmii_mac2.srcs/sources_1/ip/ila_10/hdl/verilog"
glbl.v,Verilog,xil_defaultlib,glbl.v
