xpm_cdc.sv,systemverilog,xil_defaultlib,../../../../../../Xilinx/Vivado/2016.4/data/ip/xpm/xpm_cdc/hdl/xpm_cdc.sv,incdir="../../../../ddr3_and_hdmi.srcs/sources_1/ip/clk50_125"
xpm_memory.sv,systemverilog,xil_defaultlib,../../../../../../Xilinx/Vivado/2016.4/data/ip/xpm/xpm_memory/hdl/xpm_memory.sv,incdir="../../../../ddr3_and_hdmi.srcs/sources_1/ip/clk50_125"
xpm_VCOMP.vhd,vhdl,xpm,../../../../../../Xilinx/Vivado/2016.4/data/ip/xpm/xpm_VCOMP.vhd,incdir="../../../../ddr3_and_hdmi.srcs/sources_1/ip/clk50_125"
clk50_125_sim_netlist.v,verilog,xil_defaultlib,../../../../ddr3_and_hdmi.srcs/sources_1/ip/clk50_125/clk50_125_sim_netlist.v,incdir="../../../../ddr3_and_hdmi.srcs/sources_1/ip/clk50_125"
glbl.v,Verilog,xil_defaultlib,glbl.v
