verilog xil_defaultlib "../../../../ddr3_and_hdmi.srcs/sources_1/ip/clk_65_235/clk_65_235_clk_wiz.v" --include "../../../ipstatic"
verilog xil_defaultlib "../../../../ddr3_and_hdmi.srcs/sources_1/ip/clk_65_235/clk_65_235.v" --include "../../../ipstatic"

verilog xil_defaultlib "glbl.v"

nosort
