Copyright 1986-2016 Xilinx, Inc. All Rights Reserved.
---------------------------------------------------------------------------------------------------------------------
| Tool Version : Vivado v.2016.4 (win64) Build 1756540 Mon Jan 23 19:11:23 MST 2017
| Date         : Tue Oct 17 17:38:50 2017
| Host         : DESKTOP-K9RC7KV running 64-bit major release  (build 9200)
| Command      : report_methodology -file top_all_methodology_drc_routed.rpt -rpx top_all_methodology_drc_routed.rpx
| Design       : top_all
| Device       : xc7a35tfgg484-2
| Speed File   : -2
| Design State : Routed
---------------------------------------------------------------------------------------------------------------------

Report Methodology

Table of Contents
-----------------
1. REPORT SUMMARY
2. REPORT DETAILS

1. REPORT SUMMARY
-----------------
            Netlist: netlist
          Floorplan: design_1
      Design limits: <entire design considered>
             Max violations: <unlimited>
             Violations found: 48
+-----------+----------+-------------------------------------------------+------------+
| Rule      | Severity | Description                                     | Violations |
+-----------+----------+-------------------------------------------------+------------+
| PDRC-190  | Warning  | Suboptimally placed synchronized register chain | 28         |
| SYNTH-6   | Warning  | Timing of a block RAM might be sub-optimal      | 1          |
| TIMING-6  | Warning  | No common primary clock between related clocks  | 2          |
| TIMING-7  | Warning  | No common node between related clocks           | 2          |
| TIMING-13 | Warning  | Timing paths ignored due to path segmentation   | 1          |
| TIMING-18 | Warning  | Missing input or output delay                   | 14         |
+-----------+----------+-------------------------------------------------+------------+

2. REPORT DETAILS
-----------------
PDRC-190#1 Warning
Suboptimally placed synchronized register chain  
The FDRE cell dbg_hub/inst/CORE_XSDB.UUT_MASTER/U_ICON_INTERFACE/U_CMD2/stat_reg_reg[0] in site SLICE_X31Y45 is part of a synchronized register chain that is suboptimally placed as the load FDRE cell dbg_hub/inst/CORE_XSDB.UUT_MASTER/U_ICON_INTERFACE/U_CMD2/stat_reg_1_reg[0] is not placed in the same (SLICE) site.
Related violations: <none>

PDRC-190#2 Warning
Suboptimally placed synchronized register chain  
The FDRE cell dbg_hub/inst/CORE_XSDB.UUT_MASTER/U_ICON_INTERFACE/U_CMD2/stat_reg_reg[1] in site SLICE_X28Y45 is part of a synchronized register chain that is suboptimally placed as the load FDRE cell dbg_hub/inst/CORE_XSDB.UUT_MASTER/U_ICON_INTERFACE/U_CMD2/stat_reg_1_reg[1] is not placed in the same (SLICE) site.
Related violations: <none>

PDRC-190#3 Warning
Suboptimally placed synchronized register chain  
The FDRE cell dbg_hub/inst/CORE_XSDB.UUT_MASTER/U_ICON_INTERFACE/U_CMD2/stat_reg_reg[2] in site SLICE_X30Y44 is part of a synchronized register chain that is suboptimally placed as the load FDRE cell dbg_hub/inst/CORE_XSDB.UUT_MASTER/U_ICON_INTERFACE/U_CMD2/stat_reg_1_reg[2] is not placed in the same (SLICE) site.
Related violations: <none>

PDRC-190#4 Warning
Suboptimally placed synchronized register chain  
The FDRE cell dbg_hub/inst/CORE_XSDB.UUT_MASTER/U_ICON_INTERFACE/U_CMD2/stat_reg_reg[3] in site SLICE_X29Y44 is part of a synchronized register chain that is suboptimally placed as the load FDRE cell dbg_hub/inst/CORE_XSDB.UUT_MASTER/U_ICON_INTERFACE/U_CMD2/stat_reg_1_reg[3] is not placed in the same (SLICE) site.
Related violations: <none>

PDRC-190#5 Warning
Suboptimally placed synchronized register chain  
The FDRE cell dbg_hub/inst/CORE_XSDB.UUT_MASTER/U_ICON_INTERFACE/U_CMD3/stat_reg_reg[0] in site SLICE_X30Y46 is part of a synchronized register chain that is suboptimally placed as the load FDRE cell dbg_hub/inst/CORE_XSDB.UUT_MASTER/U_ICON_INTERFACE/U_CMD3/stat_reg_1_reg[0] is not placed in the same (SLICE) site.
Related violations: <none>

PDRC-190#6 Warning
Suboptimally placed synchronized register chain  
The FDRE cell dbg_hub/inst/CORE_XSDB.UUT_MASTER/U_ICON_INTERFACE/U_CMD3/stat_reg_reg[1] in site SLICE_X29Y46 is part of a synchronized register chain that is suboptimally placed as the load FDRE cell dbg_hub/inst/CORE_XSDB.UUT_MASTER/U_ICON_INTERFACE/U_CMD3/stat_reg_1_reg[1] is not placed in the same (SLICE) site.
Related violations: <none>

PDRC-190#7 Warning
Suboptimally placed synchronized register chain  
The FDRE cell dbg_hub/inst/CORE_XSDB.UUT_MASTER/U_ICON_INTERFACE/U_CMD3/stat_reg_reg[2] in site SLICE_X29Y48 is part of a synchronized register chain that is suboptimally placed as the load FDRE cell dbg_hub/inst/CORE_XSDB.UUT_MASTER/U_ICON_INTERFACE/U_CMD3/stat_reg_1_reg[2] is not placed in the same (SLICE) site.
Related violations: <none>

PDRC-190#8 Warning
Suboptimally placed synchronized register chain  
The FDRE cell dbg_hub/inst/CORE_XSDB.UUT_MASTER/U_ICON_INTERFACE/U_CMD3/stat_reg_reg[3] in site SLICE_X30Y48 is part of a synchronized register chain that is suboptimally placed as the load FDRE cell dbg_hub/inst/CORE_XSDB.UUT_MASTER/U_ICON_INTERFACE/U_CMD3/stat_reg_1_reg[3] is not placed in the same (SLICE) site.
Related violations: <none>

PDRC-190#9 Warning
Suboptimally placed synchronized register chain  
The FDRE cell dbg_hub/inst/CORE_XSDB.UUT_MASTER/U_ICON_INTERFACE/U_CMD3/stat_reg_reg[4] in site SLICE_X28Y47 is part of a synchronized register chain that is suboptimally placed as the load FDRE cell dbg_hub/inst/CORE_XSDB.UUT_MASTER/U_ICON_INTERFACE/U_CMD3/stat_reg_1_reg[4] is not placed in the same (SLICE) site.
Related violations: <none>

PDRC-190#10 Warning
Suboptimally placed synchronized register chain  
The FDRE cell dbg_hub/inst/CORE_XSDB.UUT_MASTER/U_ICON_INTERFACE/U_CMD4/shift_reg_in_reg[12] in site SLICE_X12Y50 is part of a synchronized register chain that is suboptimally placed as the load FDRE cell dbg_hub/inst/CORE_XSDB.UUT_MASTER/U_ICON_INTERFACE/U_CMD4/shift_reg_in_reg[11] is not placed in the same (SLICE) site.
Related violations: <none>

PDRC-190#11 Warning
Suboptimally placed synchronized register chain  
The FDRE cell dbg_hub/inst/CORE_XSDB.UUT_MASTER/U_ICON_INTERFACE/U_CMD4/shift_reg_in_reg[20] in site SLICE_X12Y49 is part of a synchronized register chain that is suboptimally placed as the load FDRE cell dbg_hub/inst/CORE_XSDB.UUT_MASTER/U_ICON_INTERFACE/U_CMD4/shift_reg_in_reg[19] is not placed in the same (SLICE) site.
Related violations: <none>

PDRC-190#12 Warning
Suboptimally placed synchronized register chain  
The FDRE cell dbg_hub/inst/CORE_XSDB.UUT_MASTER/U_ICON_INTERFACE/U_CMD4/shift_reg_in_reg[4] in site SLICE_X12Y51 is part of a synchronized register chain that is suboptimally placed as the load FDRE cell dbg_hub/inst/CORE_XSDB.UUT_MASTER/U_ICON_INTERFACE/U_CMD4/shift_reg_in_reg[3] is not placed in the same (SLICE) site.
Related violations: <none>

PDRC-190#13 Warning
Suboptimally placed synchronized register chain  
The FDRE cell dbg_hub/inst/CORE_XSDB.UUT_MASTER/U_ICON_INTERFACE/U_CMD5/shift_reg_in_reg[10] in site SLICE_X34Y47 is part of a synchronized register chain that is suboptimally placed as the load FDRE cell dbg_hub/inst/CORE_XSDB.UUT_MASTER/U_ICON_INTERFACE/U_CMD5/shift_reg_in_reg[9] is not placed in the same (SLICE) site.
Related violations: <none>

PDRC-190#14 Warning
Suboptimally placed synchronized register chain  
The FDRE cell dbg_hub/inst/CORE_XSDB.UUT_MASTER/U_ICON_INTERFACE/U_CMD5/shift_reg_in_reg[2] in site SLICE_X34Y48 is part of a synchronized register chain that is suboptimally placed as the load FDRE cell dbg_hub/inst/CORE_XSDB.UUT_MASTER/U_ICON_INTERFACE/U_CMD5/shift_reg_in_reg[1] is not placed in the same (SLICE) site.
Related violations: <none>

PDRC-190#15 Warning
Suboptimally placed synchronized register chain  
The FDRE cell dbg_hub/inst/CORE_XSDB.UUT_MASTER/U_ICON_INTERFACE/U_CMD7_CTL/shift_reg_in_reg[0] in site SLICE_X29Y39 is part of a synchronized register chain that is suboptimally placed as the load FDRE cell dbg_hub/inst/CORE_XSDB.UUT_MASTER/U_ICON_INTERFACE/U_CMD7_STAT/stat_reg_reg[0] is not placed in the same (SLICE) site.
Related violations: <none>

PDRC-190#16 Warning
Suboptimally placed synchronized register chain  
The FDRE cell dbg_hub/inst/CORE_XSDB.UUT_MASTER/U_ICON_INTERFACE/U_CMD7_STAT/stat_reg_reg[0] in site SLICE_X29Y40 is part of a synchronized register chain that is suboptimally placed as the load FDRE cell dbg_hub/inst/CORE_XSDB.UUT_MASTER/U_ICON_INTERFACE/U_CMD7_STAT/stat_reg_1_reg[0] is not placed in the same (SLICE) site.
Related violations: <none>

PDRC-190#17 Warning
Suboptimally placed synchronized register chain  
The FDRE cell ddr3_top_inst/ddr3_ip_inst/a7_ddr3_mig_inst/u_ddr3_mig/temp_mon_enabled.u_tempmon/device_temp_sync_r5_reg[0] in site SLICE_X14Y74 is part of a synchronized register chain that is suboptimally placed as the load FDRE cell ddr3_top_inst/ddr3_ip_inst/a7_ddr3_mig_inst/u_ddr3_mig/temp_mon_enabled.u_tempmon/device_temp_r_reg[0] is not placed in the same (SLICE) site.
Related violations: <none>

PDRC-190#18 Warning
Suboptimally placed synchronized register chain  
The FDRE cell ddr3_top_inst/ddr3_ip_inst/a7_ddr3_mig_inst/u_ddr3_mig/temp_mon_enabled.u_tempmon/device_temp_sync_r5_reg[10] in site SLICE_X15Y72 is part of a synchronized register chain that is suboptimally placed as the load FDRE cell ddr3_top_inst/ddr3_ip_inst/a7_ddr3_mig_inst/u_ddr3_mig/temp_mon_enabled.u_tempmon/device_temp_r_reg[10] is not placed in the same (SLICE) site.
Related violations: <none>

PDRC-190#19 Warning
Suboptimally placed synchronized register chain  
The FDRE cell ddr3_top_inst/ddr3_ip_inst/a7_ddr3_mig_inst/u_ddr3_mig/temp_mon_enabled.u_tempmon/device_temp_sync_r5_reg[11] in site SLICE_X13Y71 is part of a synchronized register chain that is suboptimally placed as the load FDRE cell ddr3_top_inst/ddr3_ip_inst/a7_ddr3_mig_inst/u_ddr3_mig/temp_mon_enabled.u_tempmon/device_temp_r_reg[11] is not placed in the same (SLICE) site.
Related violations: <none>

PDRC-190#20 Warning
Suboptimally placed synchronized register chain  
The FDRE cell ddr3_top_inst/ddr3_ip_inst/a7_ddr3_mig_inst/u_ddr3_mig/temp_mon_enabled.u_tempmon/device_temp_sync_r5_reg[1] in site SLICE_X15Y76 is part of a synchronized register chain that is suboptimally placed as the load FDRE cell ddr3_top_inst/ddr3_ip_inst/a7_ddr3_mig_inst/u_ddr3_mig/temp_mon_enabled.u_tempmon/device_temp_r_reg[1] is not placed in the same (SLICE) site.
Related violations: <none>

PDRC-190#21 Warning
Suboptimally placed synchronized register chain  
The FDRE cell ddr3_top_inst/ddr3_ip_inst/a7_ddr3_mig_inst/u_ddr3_mig/temp_mon_enabled.u_tempmon/device_temp_sync_r5_reg[2] in site SLICE_X15Y74 is part of a synchronized register chain that is suboptimally placed as the load FDRE cell ddr3_top_inst/ddr3_ip_inst/a7_ddr3_mig_inst/u_ddr3_mig/temp_mon_enabled.u_tempmon/device_temp_r_reg[2] is not placed in the same (SLICE) site.
Related violations: <none>

PDRC-190#22 Warning
Suboptimally placed synchronized register chain  
The FDRE cell ddr3_top_inst/ddr3_ip_inst/a7_ddr3_mig_inst/u_ddr3_mig/temp_mon_enabled.u_tempmon/device_temp_sync_r5_reg[3] in site SLICE_X13Y73 is part of a synchronized register chain that is suboptimally placed as the load FDRE cell ddr3_top_inst/ddr3_ip_inst/a7_ddr3_mig_inst/u_ddr3_mig/temp_mon_enabled.u_tempmon/device_temp_r_reg[3] is not placed in the same (SLICE) site.
Related violations: <none>

PDRC-190#23 Warning
Suboptimally placed synchronized register chain  
The FDRE cell ddr3_top_inst/ddr3_ip_inst/a7_ddr3_mig_inst/u_ddr3_mig/temp_mon_enabled.u_tempmon/device_temp_sync_r5_reg[4] in site SLICE_X12Y72 is part of a synchronized register chain that is suboptimally placed as the load FDRE cell ddr3_top_inst/ddr3_ip_inst/a7_ddr3_mig_inst/u_ddr3_mig/temp_mon_enabled.u_tempmon/device_temp_r_reg[4] is not placed in the same (SLICE) site.
Related violations: <none>

PDRC-190#24 Warning
Suboptimally placed synchronized register chain  
The FDRE cell ddr3_top_inst/ddr3_ip_inst/a7_ddr3_mig_inst/u_ddr3_mig/temp_mon_enabled.u_tempmon/device_temp_sync_r5_reg[5] in site SLICE_X13Y75 is part of a synchronized register chain that is suboptimally placed as the load FDRE cell ddr3_top_inst/ddr3_ip_inst/a7_ddr3_mig_inst/u_ddr3_mig/temp_mon_enabled.u_tempmon/device_temp_r_reg[5] is not placed in the same (SLICE) site.
Related violations: <none>

PDRC-190#25 Warning
Suboptimally placed synchronized register chain  
The FDRE cell ddr3_top_inst/ddr3_ip_inst/a7_ddr3_mig_inst/u_ddr3_mig/temp_mon_enabled.u_tempmon/device_temp_sync_r5_reg[6] in site SLICE_X14Y71 is part of a synchronized register chain that is suboptimally placed as the load FDRE cell ddr3_top_inst/ddr3_ip_inst/a7_ddr3_mig_inst/u_ddr3_mig/temp_mon_enabled.u_tempmon/device_temp_r_reg[6] is not placed in the same (SLICE) site.
Related violations: <none>

PDRC-190#26 Warning
Suboptimally placed synchronized register chain  
The FDRE cell ddr3_top_inst/ddr3_ip_inst/a7_ddr3_mig_inst/u_ddr3_mig/temp_mon_enabled.u_tempmon/device_temp_sync_r5_reg[7] in site SLICE_X15Y70 is part of a synchronized register chain that is suboptimally placed as the load FDRE cell ddr3_top_inst/ddr3_ip_inst/a7_ddr3_mig_inst/u_ddr3_mig/temp_mon_enabled.u_tempmon/device_temp_r_reg[7] is not placed in the same (SLICE) site.
Related violations: <none>

PDRC-190#27 Warning
Suboptimally placed synchronized register chain  
The FDRE cell ddr3_top_inst/ddr3_ip_inst/a7_ddr3_mig_inst/u_ddr3_mig/temp_mon_enabled.u_tempmon/device_temp_sync_r5_reg[8] in site SLICE_X14Y76 is part of a synchronized register chain that is suboptimally placed as the load FDRE cell ddr3_top_inst/ddr3_ip_inst/a7_ddr3_mig_inst/u_ddr3_mig/temp_mon_enabled.u_tempmon/device_temp_r_reg[8] is not placed in the same (SLICE) site.
Related violations: <none>

PDRC-190#28 Warning
Suboptimally placed synchronized register chain  
The FDRE cell ddr3_top_inst/ddr3_ip_inst/a7_ddr3_mig_inst/u_ddr3_mig/temp_mon_enabled.u_tempmon/device_temp_sync_r5_reg[9] in site SLICE_X12Y74 is part of a synchronized register chain that is suboptimally placed as the load FDRE cell ddr3_top_inst/ddr3_ip_inst/a7_ddr3_mig_inst/u_ddr3_mig/temp_mon_enabled.u_tempmon/device_temp_r_reg[9] is not placed in the same (SLICE) site.
Related violations: <none>

SYNTH-6#1 Warning
Timing of a block RAM might be sub-optimal  
The timing for the instance tx_ctrl2_inst/in_ram_cnt_reg_rep, implemented as a block RAM, might be sub-optimal as no output register was merged into the block
Related violations: <none>

TIMING-6#1 Warning
No common primary clock between related clocks  
The clocks clk_125_clk50_125 and rxclk_90_rxclk_90 are related (timed together) but they have no common primary clock. The design could fail in hardware. To find a timing path between these clocks, run the following command: report_timing -from [get_clocks clk_125_clk50_125] -to [get_clocks rxclk_90_rxclk_90]
Related violations: <none>

TIMING-6#2 Warning
No common primary clock between related clocks  
The clocks rxclk_90_rxclk_90 and clk_125_clk50_125 are related (timed together) but they have no common primary clock. The design could fail in hardware. To find a timing path between these clocks, run the following command: report_timing -from [get_clocks rxclk_90_rxclk_90] -to [get_clocks clk_125_clk50_125]
Related violations: <none>

TIMING-7#1 Warning
No common node between related clocks  
The clocks clk_125_clk50_125 and rxclk_90_rxclk_90 are related (timed together) but they have no common node. The design could fail in hardware. To find a timing path between these clocks, run the following command: report_timing -from [get_clocks clk_125_clk50_125] -to [get_clocks rxclk_90_rxclk_90]
Related violations: <none>

TIMING-7#2 Warning
No common node between related clocks  
The clocks rxclk_90_rxclk_90 and clk_125_clk50_125 are related (timed together) but they have no common node. The design could fail in hardware. To find a timing path between these clocks, run the following command: report_timing -from [get_clocks rxclk_90_rxclk_90] -to [get_clocks clk_125_clk50_125]
Related violations: <none>

TIMING-13#1 Warning
Timing paths ignored due to path segmentation  
Some timing paths are not reported due to path segmentation on pin(s) ddr3_top_inst/ddr3_ip_inst/a7_ddr3_mig_inst/u_ddr3_mig/u_memc_ui_top_std/mem_intfc0/ddr_phy_top0/u_ddr_mc_phy_wrapper/u_ddr_mc_phy/ddr_phy_4lanes_1.u_ddr_phy_4lanes/phy_control_i/RESET. To prevent path segmentation, all the Min and Max delay constraints should be defined with a list of valid startpoints and endpoints
Related violations: <none>

TIMING-18#1 Warning
Missing input or output delay  
An input delay is missing on rst_n relative to clock(s) VIRTUAL_clk125_10_clk50_125 VIRTUAL_clk_200_clk50_125 VIRTUAL_clk_pll_i VIRTUAL_rxclk_90_rxclk_90 
Related violations: <none>

TIMING-18#2 Warning
Missing input or output delay  
An input delay is missing on rx_ctrl relative to clock(s) VIRTUAL_rxclk_90_rxclk_90 
Related violations: <none>

TIMING-18#3 Warning
Missing input or output delay  
An input delay is missing on rx_data[0] relative to clock(s) VIRTUAL_rxclk_90_rxclk_90 
Related violations: <none>

TIMING-18#4 Warning
Missing input or output delay  
An input delay is missing on rx_data[1] relative to clock(s) VIRTUAL_rxclk_90_rxclk_90 
Related violations: <none>

TIMING-18#5 Warning
Missing input or output delay  
An input delay is missing on rx_data[2] relative to clock(s) VIRTUAL_rxclk_90_rxclk_90 
Related violations: <none>

TIMING-18#6 Warning
Missing input or output delay  
An input delay is missing on rx_data[3] relative to clock(s) VIRTUAL_rxclk_90_rxclk_90 
Related violations: <none>

TIMING-18#7 Warning
Missing input or output delay  
An output delay is missing on ddr3_reset_n relative to clock(s) VIRTUAL_clk_pll_i 
Related violations: <none>

TIMING-18#8 Warning
Missing input or output delay  
An output delay is missing on phy_rst_n relative to clock(s) VIRTUAL_clk_125_clk50_125 
Related violations: <none>

TIMING-18#9 Warning
Missing input or output delay  
An output delay is missing on tx_clk relative to clock(s) VIRTUAL_clk125_10_clk50_125 
Related violations: <none>

TIMING-18#10 Warning
Missing input or output delay  
An output delay is missing on tx_ctrl relative to clock(s) VIRTUAL_clk_125_clk50_125 
Related violations: <none>

TIMING-18#11 Warning
Missing input or output delay  
An output delay is missing on tx_data[0] relative to clock(s) VIRTUAL_clk_125_clk50_125 
Related violations: <none>

TIMING-18#12 Warning
Missing input or output delay  
An output delay is missing on tx_data[1] relative to clock(s) VIRTUAL_clk_125_clk50_125 
Related violations: <none>

TIMING-18#13 Warning
Missing input or output delay  
An output delay is missing on tx_data[2] relative to clock(s) VIRTUAL_clk_125_clk50_125 
Related violations: <none>

TIMING-18#14 Warning
Missing input or output delay  
An output delay is missing on tx_data[3] relative to clock(s) VIRTUAL_clk_125_clk50_125 
Related violations: <none>


