Design Route Status
                                               :      # nets :
   ------------------------------------------- : ----------- :
   # of logical nets.......................... :       22628 :
       # of nets not needing routing.......... :        5924 :
           # of internally routed nets........ :        5599 :
           # of nets with no loads............ :         325 :
       # of routable nets..................... :       16704 :
           # of fully routed nets............. :       16704 :
       # of nets with routing errors.......... :           0 :
   ------------------------------------------- : ----------- :

